Time (ms),Time(h),CoreTemp (C),MCP9808 temp (C),MCP9808 temp (T)
181,5.02778E-05,-5.82,21.12,70.02
60273,0.0167425,-6.12,21.19,70.14
120365,0.033434722,-6.12,21.19,70.14
180457,0.050126944,-6.12,21.12,70.02
240549,0.066819167,-6.12,21.19,70.14
300641,0.083511389,-6.12,21.25,70.25
360733,0.100203611,-6.12,21.31,70.36
420825,0.116895833,-6.12,21.25,70.25
480917,0.133588056,-6.12,21.19,70.14
541009,0.150280278,-6.42,21.25,70.25
601101,0.1669725,-6.12,21.19,70.14
661193,0.183664722,-6.12,21.12,70.02
721285,0.200356944,-6.12,21.12,70.02
781377,0.217049167,-6.42,21.12,70.02
841469,0.233741389,-6.12,21.19,70.14
901561,0.250433611,-6.12,21.25,70.25
961653,0.267125833,-6.12,21.06,69.91
1021745,0.283818056,-5.82,21.12,70.02
1081837,0.300510278,-6.42,21.06,69.91
1142019,0.3172275,-6.12,21.06,69.91
1202111,0.333919722,-6.42,21.06,69.91
1262203,0.350611944,-6.72,21.06,69.91
1322295,0.367304167,-6.42,21.12,70.02
1382387,0.383996389,-6.42,21.12,70.02
1442479,0.400688611,-6.12,21.06,69.91
1502571,0.417380833,-6.12,21.06,69.91
1562663,0.434073056,-6.12,21.06,69.91
1622755,0.450765278,-6.12,21.06,69.91
1682847,0.4674575,-6.42,21.06,69.91
1742939,0.484149722,-6.12,21.06,69.91
1803031,0.500841944,-6.12,21,69.8
1863123,0.517534167,-6.42,21,69.8
1923215,0.534226389,-6.42,21,69.8
1983307,0.550918611,-6.12,20.94,69.69
2043399,0.567610833,-6.42,20.94,69.69
2103491,0.584303056,-6.42,20.94,69.69
2163583,0.600995278,-6.42,20.88,69.57
2223675,0.6176875,-6.72,20.94,69.69
2283767,0.634379722,-6.42,20.81,69.46
2343904,0.651084444,-6.42,20.81,69.46
2403996,0.667776667,-6.42,20.81,69.46
2464088,0.684468889,-6.72,20.69,69.24
2524180,0.701161111,-6.72,20.81,69.46
2584272,0.717853333,-6.72,20.75,69.35
2644364,0.734545556,-7.01,20.81,69.46
2704456,0.751237778,-6.42,20.75,69.35
2764548,0.76793,-6.42,20.88,69.57
2824640,0.784622222,-6.42,20.88,69.57
2884732,0.801314444,-6.42,20.94,69.69
2944824,0.818006667,-6.12,21.06,69.91
3004916,0.834698889,-6.42,21.06,69.91
3065008,0.851391111,-6.42,21,69.8
3125100,0.868083333,-6.72,21,69.8
3185192,0.884775556,-6.72,21,69.8
3245284,0.901467778,-6.72,21,69.8
3305376,0.91816,-6.42,21.06,69.91
3365468,0.934852222,-6.42,20.94,69.69
3425560,0.951544444,-7.01,20.94,69.69
3485742,0.968261667,-6.42,21,69.8
3545834,0.984953889,-6.72,20.94,69.69
3605926,1.001646111,-6.42,20.88,69.57
3666018,1.018338333,-6.72,20.81,69.46
3726110,1.035030556,-6.42,20.63,69.12
3786202,1.051722778,-6.42,20.56,69.01
3846294,1.068415,-6.72,20.5,68.9
3906386,1.085107222,-7.01,20.63,69.12
3966478,1.101799444,-7.01,20.69,69.24
4026570,1.118491667,-6.42,20.81,69.46
4086662,1.135183889,-6.42,20.75,69.35
4146754,1.151876111,-6.42,20.69,69.24
4206846,1.168568333,-6.72,20.56,69.01
4266938,1.185260556,-6.72,20.5,68.9
4327030,1.201952778,-6.72,20.56,69.01
4387122,1.218645,-6.72,20.5,68.9
4447214,1.235337222,-7.01,20.44,68.79
4507306,1.252029444,-6.72,20.44,68.79
4567398,1.268721667,-7.01,20.44,68.79
4627490,1.285413889,-6.72,20.5,68.9
4687672,1.302131111,-6.72,20.75,69.35
4747764,1.318823333,-6.72,20.88,69.57
4807856,1.335515556,-6.72,20.81,69.46
4867948,1.352207778,-6.42,20.88,69.57
4928040,1.3689,-6.72,20.94,69.69
4988132,1.385592222,-6.12,20.94,69.69
5048224,1.402284444,-7.01,20.94,69.69
5108316,1.418976667,-6.72,20.94,69.69
5168408,1.435668889,-6.72,20.94,69.69
5228500,1.452361111,-6.42,20.94,69.69
5288592,1.469053333,-6.72,20.94,69.69
5348684,1.485745556,-6.42,20.88,69.57
5408776,1.502437778,-7.01,20.94,69.69
5468868,1.51913,-6.72,20.88,69.57
5528960,1.535822222,-6.42,20.88,69.57
5589052,1.552514444,-7.01,20.81,69.46
5649144,1.569206667,-6.72,20.88,69.57
5709236,1.585898889,-6.72,20.88,69.57
5769328,1.602591111,-6.42,20.81,69.46
5829420,1.619283333,-7.01,20.81,69.46
5889602,1.636000556,-6.72,20.75,69.35
5949694,1.652692778,-7.01,20.75,69.35
6009786,1.669385,-7.01,20.75,69.35
6069878,1.686077222,-6.42,20.75,69.35
6129970,1.702769444,-6.72,20.75,69.35
6190062,1.719461667,-6.72,20.75,69.35
6250154,1.736153889,-6.42,20.75,69.35
6310246,1.752846111,-6.42,20.75,69.35
6370338,1.769538333,-6.72,20.81,69.46
6430430,1.786230556,-6.72,20.81,69.46
6490522,1.802922778,-6.72,20.75,69.35
6550614,1.819615,-6.72,20.75,69.35
6610706,1.836307222,-6.72,20.75,69.35
6670798,1.852999444,-6.72,20.75,69.35
6730890,1.869691667,-7.01,20.81,69.46
6790982,1.886383889,-6.72,20.75,69.35
6851074,1.903076111,-6.72,20.75,69.35
6911166,1.919768333,-6.72,20.81,69.46
6971258,1.936460556,-6.72,20.75,69.35
7031440,1.953177778,-6.72,20.69,69.24
7091532,1.96987,-7.01,20.75,69.35
7151624,1.986562222,-7.01,20.69,69.24
7211716,2.003254444,-6.72,20.63,69.12
7271808,2.019946667,-7.01,20.69,69.24
7331900,2.036638889,-6.72,20.75,69.35
7391992,2.053331111,-7.01,20.69,69.24
7452084,2.070023333,-7.01,20.69,69.24
7512176,2.086715556,-7.01,20.69,69.24
7572268,2.103407778,-6.72,20.75,69.35
7632360,2.1201,-6.72,20.75,69.35
7692452,2.136792222,-6.72,20.81,69.46
7752544,2.153484444,-7.01,20.75,69.35
7812636,2.170176667,-7.01,20.63,69.12
7872728,2.186868889,-7.01,20.56,69.01
7932820,2.203561111,-7.01,20.56,69.01
7992912,2.220253333,-6.72,20.56,69.01
8053004,2.236945556,-6.72,20.56,69.01
8113096,2.253637778,-7.01,20.63,69.12
8173188,2.27033,-7.01,20.63,69.12
8233370,2.287047222,-7.01,20.38,68.68
8293462,2.303739444,-6.42,20.5,68.9
8353554,2.320431667,-6.72,20.56,69.01
8413646,2.337123889,-6.42,20.56,69.01
8473738,2.353816111,-6.72,20.56,69.01
8533830,2.370508333,-7.01,20.63,69.12
8593922,2.387200556,-7.01,20.75,69.35
8654014,2.403892778,-7.01,20.69,69.24
8714106,2.420585,-7.01,20.69,69.24
8774198,2.437277222,-6.72,20.81,69.46
8834290,2.453969444,-7.01,20.75,69.35
8894382,2.470661667,-6.72,20.69,69.24
8954474,2.487353889,-6.72,20.69,69.24
9014566,2.504046111,-7.01,20.75,69.35
9074658,2.520738333,-7.31,20.75,69.35
9134750,2.537430556,-6.72,20.69,69.24
9194842,2.554122778,-7.01,20.75,69.35
9254934,2.570815,-7.01,20.81,69.46
9315026,2.587507222,-7.01,20.75,69.35
9375118,2.604199444,-6.72,20.81,69.46
9435300,2.620916667,-7.01,20.81,69.46
9495392,2.637608889,-6.72,20.94,69.69
9555484,2.654301111,-6.72,21,69.8
9615576,2.670993333,-6.72,20.94,69.69
9675668,2.687685556,-7.01,20.94,69.69
9735760,2.704377778,-6.72,20.94,69.69
9795852,2.72107,-6.42,21,69.8
9855944,2.737762222,-6.42,21,69.8
9916036,2.754454444,-6.72,21.06,69.91
9976128,2.771146667,-6.72,21,69.8
10036220,2.787838889,-6.72,20.94,69.69
10096312,2.804531111,-6.72,21,69.8
10156404,2.821223333,-6.72,20.94,69.69
10216496,2.837915556,-6.42,21,69.8
10276588,2.854607778,-7.01,20.94,69.69
10336680,2.8713,-7.01,21,69.8
10396772,2.887992222,-6.72,20.94,69.69
10456864,2.904684444,-6.72,20.94,69.69
10516956,2.921376667,-7.01,20.94,69.69
10577138,2.938093889,-6.72,20.94,69.69
10637230,2.954786111,-7.01,20.94,69.69
10697322,2.971478333,-6.72,20.88,69.57
10757414,2.988170556,-6.72,20.81,69.46
10817506,3.004862778,-6.72,20.75,69.35
10877598,3.021555,-6.72,20.75,69.35
10937690,3.038247222,-7.31,20.75,69.35
10997782,3.054939444,-6.72,20.81,69.46
11057874,3.071631667,-7.01,20.75,69.35
11117966,3.088323889,-6.72,20.81,69.46
11178058,3.105016111,-6.72,20.88,69.57
11238150,3.121708333,-6.72,20.81,69.46
11298242,3.138400556,-6.72,20.75,69.35
11358334,3.155092778,-6.42,20.69,69.24
11418426,3.171785,-6.72,20.81,69.46
11478518,3.188477222,-6.72,20.81,69.46
11538610,3.205169444,-6.72,20.81,69.46
11598702,3.221861667,-6.72,20.75,69.35
11658794,3.238553889,-6.72,20.75,69.35
11718976,3.255271111,-6.72,20.81,69.46
11779068,3.271963333,-6.72,20.69,69.24
11839160,3.288655556,-7.01,20.63,69.12
11899252,3.305347778,-6.72,20.63,69.12
11959344,3.32204,-6.42,20.75,69.35
12019436,3.338732222,-6.42,20.81,69.46
12079528,3.355424444,-6.12,20.81,69.46
12139620,3.372116667,-6.12,20.88,69.57
12199712,3.388808889,-6.72,20.88,69.57
12259804,3.405501111,-6.42,20.81,69.46
12319896,3.422193333,-6.72,20.75,69.35
12379988,3.438885556,-6.12,20.88,69.57
12440080,3.455577778,-6.72,20.94,69.69
12500172,3.47227,-7.01,20.88,69.57
12560264,3.488962222,-6.42,20.81,69.46
12620356,3.505654444,-6.72,20.81,69.46
12680448,3.522346667,-6.42,20.69,69.24
12740540,3.539038889,-7.01,20.75,69.35
12800632,3.555731111,-6.72,20.75,69.35
12860814,3.572448333,-6.72,20.69,69.24
12920906,3.589140556,-6.42,20.69,69.24
12980998,3.605832778,-6.42,20.81,69.46
13041090,3.622525,-6.72,20.75,69.35
13101182,3.639217222,-6.72,20.88,69.57
13161274,3.655909444,-6.72,20.75,69.35
13221366,3.672601667,-7.01,20.69,69.24
13281458,3.689293889,-6.72,20.63,69.12
13341550,3.705986111,-6.72,20.56,69.01
13401642,3.722678333,-6.72,20.63,69.12
13461734,3.739370556,-6.72,20.75,69.35
13521826,3.756062778,-6.72,20.69,69.24
13581918,3.772755,-6.72,20.81,69.46
13642010,3.789447222,-6.42,20.69,69.24
13702102,3.806139444,-7.01,20.56,69.01
13762194,3.822831667,-6.72,20.56,69.01
13822286,3.839523889,-6.72,20.63,69.12
13882378,3.856216111,-6.72,20.44,68.79
13942470,3.872908333,-6.72,20.5,68.9
14002652,3.889625556,-6.42,20.56,69.01
14062744,3.906317778,-6.72,20.63,69.12
14122836,3.92301,-6.72,20.75,69.35
14182928,3.939702222,-7.01,20.75,69.35
14243020,3.956394444,-6.72,20.81,69.46
14303112,3.973086667,-6.72,20.81,69.46
14363204,3.989778889,-6.72,20.69,69.24
14423296,4.006471111,-6.42,20.75,69.35
14483388,4.023163333,-6.42,20.75,69.35
14543480,4.039855556,-7.01,20.81,69.46
14603572,4.056547778,-6.72,20.69,69.24
14663664,4.07324,-6.72,20.56,69.01
14723756,4.089932222,-7.01,20.44,68.79
14783848,4.106624444,-6.72,20.44,68.79
14843940,4.123316667,-7.01,20.31,68.56
14904039,4.140010833,-6.72,20.56,69.01
14964131,4.156703056,-6.72,20.63,69.12
15024223,4.173395278,-6.72,20.63,69.12
15084315,4.1900875,-6.72,20.5,68.9
15144497,4.206804722,-7.01,20.44,68.79
15204589,4.223496944,-7.01,20.44,68.79
15264681,4.240189167,-7.01,20.38,68.68
15324773,4.256881389,-6.72,20.44,68.79
15384865,4.273573611,-7.01,20.5,68.9
15444957,4.290265833,-7.01,20.56,69.01
15505049,4.306958056,-6.72,20.63,69.12
15565141,4.323650278,-6.72,20.63,69.12
15625233,4.3403425,-6.72,20.44,68.79
15685325,4.357034722,-7.01,20.44,68.79
15745417,4.373726944,-7.01,20.38,68.68
15805509,4.390419167,-6.72,20.5,68.9
15865601,4.407111389,-6.42,20.63,69.12
15925693,4.423803611,-6.42,20.69,69.24
15985785,4.440495833,-7.01,20.56,69.01
16045877,4.457188056,-7.01,20.5,68.9
16105969,4.473880278,-7.01,20.5,68.9
16166061,4.4905725,-6.72,20.38,68.68
16226153,4.507264722,-7.01,20.31,68.56
16286335,4.523981944,-6.72,20.31,68.56
16346427,4.540674167,-7.01,20.63,69.12
16406519,4.557366389,-7.31,20.69,69.24
16466611,4.574058611,-7.01,20.69,69.24
16526703,4.590750833,-6.72,20.56,69.01
16586795,4.607443056,-6.42,20.56,69.01
16646887,4.624135278,-6.72,20.44,68.79
16706979,4.6408275,-7.01,20.38,68.68
16767071,4.657519722,-7.01,20.38,68.68
16827163,4.674211944,-7.01,20.5,68.9
16887255,4.690904167,-7.01,20.63,69.12
16947347,4.707596389,-6.42,20.63,69.12
17007439,4.724288611,-6.72,20.75,69.35
17067531,4.740980833,-7.01,20.63,69.12
17127623,4.757673056,-7.01,20.63,69.12
17187715,4.774365278,-7.01,20.63,69.12
17247807,4.7910575,-7.01,20.56,69.01
17307899,4.807749722,-7.01,20.5,68.9
17367991,4.824441944,-7.01,20.63,69.12
17428173,4.841159167,-7.01,20.69,69.24
17488265,4.857851389,-7.01,20.69,69.24
17548357,4.874543611,-6.72,20.63,69.12
17608449,4.891235833,-7.01,20.56,69.01
17668541,4.907928056,-7.01,20.5,68.9
17728633,4.924620278,-7.01,20.5,68.9
17788725,4.9413125,-6.42,20.56,69.01
17848817,4.958004722,-6.72,20.63,69.12
17908909,4.974696944,-6.72,20.69,69.24
17969001,4.991389167,-6.72,20.69,69.24
18029093,5.008081389,-6.72,20.75,69.35
18089185,5.024773611,-6.72,20.63,69.12
18149277,5.041465833,-6.42,20.69,69.24
18209369,5.058158056,-6.72,20.5,68.9
18269461,5.074850278,-7.01,20.5,68.9
18329553,5.0915425,-6.72,20.56,69.01
18389645,5.108234722,-7.01,20.56,69.01
18449737,5.124926944,-6.72,20.5,68.9
18509829,5.141619167,-7.01,20.56,69.01
18570011,5.158336389,-7.01,20.44,68.79
18630103,5.175028611,-7.01,20.38,68.68
18690195,5.191720833,-7.01,20.38,68.68
18750287,5.208413056,-6.72,20.44,68.79
18810379,5.225105278,-6.72,20.56,69.01
18870471,5.2417975,-6.72,20.63,69.12
18930563,5.258489722,-6.72,20.75,69.35
18990655,5.275181944,-6.72,20.63,69.12
19050747,5.291874167,-7.01,20.63,69.12
19110839,5.308566389,-6.72,20.56,69.01
19170931,5.325258611,-7.01,20.44,68.79
19231023,5.341950833,-7.01,20.31,68.56
19291115,5.358643056,-7.01,20.44,68.79
19351207,5.375335278,-7.01,20.5,68.9
19411299,5.3920275,-6.72,20.56,69.01
19471391,5.408719722,-7.01,20.5,68.9
19531483,5.425411944,-7.01,20.5,68.9
19591575,5.442104167,-7.01,20.44,68.79
19651667,5.458796389,-6.72,20.5,68.9
19711849,5.475513611,-7.01,20.38,68.68
19771941,5.492205833,-7.01,20.31,68.56
19832033,5.508898056,-7.31,20.38,68.68
19892125,5.525590278,-6.72,20.56,69.01
19952217,5.5422825,-6.72,20.63,69.12
20012309,5.558974722,-7.01,20.69,69.24
20072401,5.575666944,-7.01,20.63,69.12
20132493,5.592359167,-7.01,20.5,68.9
20192585,5.609051389,-7.01,20.31,68.56
20252677,5.625743611,-7.01,20.25,68.45
20312769,5.642435833,-7.01,20.19,68.34
20372861,5.659128056,-7.31,20.13,68.22
20432953,5.675820278,-7.31,20.19,68.34
20493045,5.6925125,-7.31,20,68
20553137,5.709204722,-7.01,20,68
20613229,5.725896944,-7.31,20.06,68.11
20673321,5.742589167,-7.31,20,68
20733413,5.759281389,-7.31,19.88,67.77
20793505,5.775973611,-7.61,19.75,67.55
20853687,5.792690833,-7.61,19.88,67.77
20913779,5.809383056,-7.61,19.81,67.66
20973871,5.826075278,-7.61,19.75,67.55
21033963,5.8427675,-7.61,19.69,67.44
21094055,5.859459722,-7.61,19.63,67.32
21154147,5.876151944,-7.61,19.63,67.32
21214239,5.892844167,-7.91,19.63,67.32
21274331,5.909536389,-7.91,19.63,67.32
21334423,5.926228611,-7.61,19.56,67.21
21394515,5.942920833,-7.61,19.56,67.21
21454607,5.959613056,-7.61,19.56,67.21
21514699,5.976305278,-7.91,19.56,67.21
21574791,5.9929975,-7.91,19.5,67.1
21634883,6.009689722,-7.91,19.5,67.1
21694975,6.026381944,-7.61,19.5,67.1
21755067,6.043074167,-7.61,19.5,67.1
21815159,6.059766389,-7.61,19.5,67.1
21875251,6.076458611,-7.61,19.63,67.32
21935343,6.093150833,-7.31,19.75,67.55
21995525,6.109868056,-7.31,19.94,67.89
22055617,6.126560278,-7.31,20.06,68.11
22115709,6.1432525,-7.31,20.25,68.45
22175801,6.159944722,-7.31,20.44,68.79
22235893,6.176636944,-7.31,20.5,68.9
22295985,6.193329167,-7.31,20.63,69.12
22356077,6.210021389,-7.01,20.75,69.35
22416169,6.226713611,-6.72,20.94,69.69
22476261,6.243405833,-6.72,21.06,69.91
22536353,6.260098056,-6.42,21.19,70.14
22596445,6.276790278,-6.42,21.25,70.25
22656537,6.2934825,-6.72,21.31,70.36
22716629,6.310174722,-6.42,21.38,70.48
22776721,6.326866944,-6.12,21.5,70.7
22836813,6.343559167,-6.42,21.44,70.59
22896905,6.360251389,-6.12,21.44,70.59
22956997,6.376943611,-6.42,21.31,70.36
23017089,6.393635833,-6.42,21.38,70.48
23077181,6.410328056,-6.42,21.38,70.48
23137363,6.427045278,-6.12,21.44,70.59
23197455,6.4437375,-6.12,21.44,70.59
23257547,6.460429722,-6.12,21.56,70.81
23317639,6.477121944,-6.12,21.56,70.81
23377731,6.493814167,-6.42,21.69,71.04
23437823,6.510506389,-6.42,21.63,70.93
23497915,6.527198611,-5.82,21.56,70.81
23558007,6.543890833,-6.42,21.56,70.81
23618099,6.560583056,-6.12,21.56,70.81
23678191,6.577275278,-6.42,21.63,70.93
23738283,6.5939675,-6.12,21.63,70.93
23798375,6.610659722,-6.12,21.75,71.15
23858467,6.627351944,-6.12,21.75,71.15
23918559,6.644044167,-6.12,21.75,71.15
23978651,6.660736389,-6.12,21.81,71.26
24038743,6.677428611,-5.82,21.75,71.15
24098835,6.694120833,-6.42,21.75,71.15
24158927,6.710813056,-5.82,21.69,71.04
24219019,6.727505278,-6.12,21.69,71.04
24279201,6.7442225,-5.82,21.75,71.15
24339293,6.760914722,-5.82,21.88,71.38
24399385,6.777606944,-5.82,22,71.6
24459477,6.794299167,-6.12,22.06,71.71
24519569,6.810991389,-6.12,22,71.6
24579661,6.827683611,-5.82,21.94,71.49
24639753,6.844375833,-5.82,21.94,71.49
24699845,6.861068056,-6.12,21.94,71.49
24759937,6.877760278,-5.82,22,71.6
24820029,6.8944525,-5.82,22.06,71.71
24880121,6.911144722,-5.82,22.13,71.82
24940213,6.927836944,-5.22,22.19,71.94
25000305,6.944529167,-5.82,22.19,71.94
25060397,6.961221389,-5.52,22.13,71.82
25120489,6.977913611,-5.82,22.06,71.71
25180581,6.994605833,-6.12,22.06,71.71
25240673,7.011298056,-5.82,22.19,71.94
25300765,7.027990278,-6.12,22.19,71.94
25360857,7.0446825,-5.22,22.25,72.05
25421039,7.061399722,-5.82,22.31,72.16
25481131,7.078091944,-5.82,22.31,72.16
25541223,7.094784167,-5.52,22.25,72.05
25601315,7.111476389,-5.82,22.19,71.94
25661407,7.128168611,-5.82,22.19,71.94
25721499,7.144860833,-5.52,22.19,71.94
25781591,7.161553056,-5.82,22.25,72.05
25841683,7.178245278,-5.52,22.31,72.16
25901775,7.1949375,-5.52,22.37,72.27
25961867,7.211629722,-5.22,22.44,72.39
26021959,7.228321944,-5.52,22.37,72.27
26082051,7.245014167,-5.52,22.31,72.16
26142143,7.261706389,-5.52,22.31,72.16
26202235,7.278398611,-5.52,22.25,72.05
26262327,7.295090833,-5.52,22.25,72.05
26322419,7.311783056,-5.82,22.37,72.27
26382511,7.328475278,-5.22,22.44,72.39
26442603,7.3451675,-5.52,22.5,72.5
26502695,7.361859722,-5.22,22.56,72.61
26562832,7.378564444,-5.52,22.5,72.5
26622924,7.395256667,-5.22,22.44,72.39
26683016,7.411948889,-5.52,22.37,72.27
26743108,7.428641111,-5.22,22.44,72.39
26803200,7.445333333,-5.22,22.5,72.5
26863292,7.462025556,-5.52,22.63,72.73
26923384,7.478717778,-5.52,22.63,72.73
26983476,7.49541,-5.82,22.69,72.84
27043568,7.512102222,-5.22,22.63,72.73
27103660,7.528794444,-5.22,22.56,72.61
27163752,7.545486667,-5.52,22.5,72.5
27223844,7.562178889,-5.22,22.5,72.5
27283936,7.578871111,-5.22,22.5,72.5
27344028,7.595563333,-5.22,22.56,72.61
27404120,7.612255556,-4.93,22.69,72.84
27464212,7.628947778,-5.22,22.75,72.95
27524304,7.64564,-5.52,22.75,72.95
27584396,7.662332222,-5.22,22.69,72.84
27644578,7.679049444,-5.22,22.63,72.73
27704670,7.695741667,-4.93,22.56,72.61
27764762,7.712433889,-4.93,22.63,72.73
27824854,7.729126111,-5.22,22.63,72.73
27884946,7.745818333,-5.52,22.69,72.84
27945038,7.762510556,-5.22,22.69,72.84
28005130,7.779202778,-5.22,22.63,72.73
28065222,7.795895,-5.22,22.56,72.61
28125314,7.812587222,-4.93,22.5,72.5
28185406,7.829279444,-5.22,22.56,72.61
28245498,7.845971667,-5.22,22.56,72.61
28305590,7.862663889,-5.22,22.56,72.61
28365682,7.879356111,-5.52,22.69,72.84
28425774,7.896048333,-5.22,22.81,73.06
28485866,7.912740556,-5.22,22.81,73.06
28545958,7.929432778,-5.22,22.63,72.73
28606050,7.946125,-5.22,22.63,72.73
28666142,7.962817222,-4.93,22.63,72.73
28726234,7.979509444,-5.22,22.56,72.61
28786416,7.996226667,-5.22,22.63,72.73
